…
``` r
tokenized_words <- unnest_tokens(familiar_texts, word, text)
```

When we print out the data it will be in the format of a “tibble”.

``` r
tokenized_words
```

    ## # A tibble: 126,928 × 3
    ##    gutenberg_id title                          word     
    ##           <int> <chr>                          <chr>    
    ##  1            5 The United States Constitution these    
    ##  2            5 The United States Constitution original 
    ##  3            5 The United States Constitution project  
    ##  4            5 The United States Constitution gutenberg
    ##  5            5 The United States Constitution etexts   
    ##  6            5 The United States Constitution will     
    ##  7            5 The United States Constitution be       
    ##  8            5 The United States Constitution compiled 
    ##  9            5 The United States Constitution into     
    ## 10            5 The United States Constitution a        
    ## # … with 126,918 more rows
…
It seems to have the highest probability (63%) to belong to topic 2.
Which seemed to be a political topic. We can go back to the original
text and have a look at the most used terms in this document.

``` r
tidy(AssociatedPress) %>%
  filter(document == 6) %>%
  arrange(desc(count))
```

    ## # A tibble: 287 × 3
    ##    document term           count
    ##       <int> <chr>          <dbl>
    ##  1        6 noriega           16
    ##  2        6 panama            12
    ##  3        6 jackson            6
    ##  4        6 powell             6
    ##  5        6 administration     5
    ##  6        6 economic           5
    ##  7        6 general            5
    ##  8        6 i                  5
    ##  9        6 panamanian         5
    ## 10        6 american           4
    ## # … with 277 more rows
…
